1;juan;andres;valencia;ramirez;2010-05-05;102030;1;1;1;1;1;''
2;german;andres;velez;ricaurte;2010-05-06;102031;1;2;2;1;2;''
3;alfredo;ricardo;ramirez;alfonso;2010-05-07;102032;1;1;3;1;3;''
4;william;andres;pinilla;perez;2010-05-08;102033;1;2;1;1;4;''
5;ricardo;andres;trujillo;castano;2010-05-09;102034;1;1;2;1;1;''
6;camila;andrea;barragan;carden;2010-05-10;102035;2;3;3;2;2;''
7;mariana;lucia;socha;vasquez;2010-05-11;102036;2;4;1;2;3;''
8;luisa;maria;quiroga;ruiz;2010-05-12;102037;2;3;2;2;4;''
9;tatiana;andrea;pedraza;rangel;2010-05-13;102038;2;4;3;2;1;''
10;margot;lucrecia;castaneda;ramirez;2010-05-14;102039;2;3;1;2;2;''
